INDEX VERSION 1.127+/Files/workspace/openunderwriter/base-product-loader-hook.war/src/Product/AIL/Base/ETL/AIL/.metadata/.plugins/org.eclipse.jdt.core
268167470.index
1260736551.index
659411456.index
1271342938.index
1522203103.index
1524350763.index
487047335.index
3349483989.index
2961435131.index
3637929226.index
2309822661.index
518397319.index
2718728712.index
4158956476.index
4166604845.index
3988564795.index
3969190818.index
609331307.index
357478278.index
4018134042.index
